Tarea7/iverilog/mips_tb.vcd
$date
	Thu Jul  2 03:36:23 2020
$end
$version
	Icarus Verilog
$end
$timescale
	1ns
$end
$scope module mips_tb $end
$var wire 32 ! memoryWriteData [31:0] $end
$var wire 1 " memoryWrite $end
$var wire 32 # memoryOutData [31:0] $end
$var wire 32 $ memoryAddress [31:0] $end
$var reg 1 % clk $end
$var reg 1 & rst $end
$scope module main_mem $end
$var wire 1 % clk $end
$var wire 32 ' memoryOutData [31:0] $end
$var wire 1 ( memoryRead $end
$var wire 1 ) rst $end
$var wire 32 * memoryWriteData [31:0] $end
$var wire 1 " memoryWrite $end
$var wire 32 + memoryAddress [31:0] $end
$var integer 32 , i [31:0] $end
$upscope $end
$scope module mips_uut $end
$var wire 32 - ALUOut [31:0] $end
$var wire 1 % clk $end
$var wire 32 . instruction [31:0] $end
$var wire 32 / memoryOutData [31:0] $end
$var wire 1 & rst $end
$var wire 6 0 op [5:0] $end
$var wire 32 1 memoryWriteData [31:0] $end
$var wire 32 2 memoryAddress [31:0] $end
$var wire 6 3 funct [5:0] $end
$var wire 1 4 RegWrite $end
$var wire 1 5 RegDst $end
$var wire 1 6 PCWrite $end
$var wire 2 7 PCSource [1:0] $end
$var wire 1 8 PCEn $end
$var wire 1 " MemWrite $end
$var wire 1 9 MemToReg $end
$var wire 1 : MemRead $end
$var wire 1 ; IorD $end
$var wire 1 < IRWrite $end
$var wire 1 = BranchNe $end
$var wire 1 > Branch $end
$var wire 1 ? ALUZero $end
$var wire 2 @ ALUSrcB [1:0] $end
$var wire 1 A ALUSrcA $end
$var wire 1 B ALUOverflow $end
$var wire 2 C ALUOp [1:0] $end
$var wire 4 D ALUControl [3:0] $end
$scope module aluControl_1 $end
$var wire 6 E inst [5:0] $end
$var wire 2 F ALUOp [1:0] $end
$var reg 4 G ALUControl [3:0] $end
$upscope $end
$scope module control_1 $end
$var wire 1 % clk $end
$var wire 6 H op [5:0] $end
$var wire 1 & rst $end
$var wire 4 I state [3:0] $end
$var reg 2 J ALUOp [1:0] $end
$var reg 1 A ALUSrcA $end
$var reg 2 K ALUSrcB [1:0] $end
$var reg 1 > Branch $end
$var reg 1 = BranchNe $end
$var reg 1 < IRWrite $end
$var reg 1 ; IorD $end
$var reg 1 : MemRead $end
$var reg 1 9 MemToReg $end
$var reg 1 " MemWrite $end
$var reg 2 L PCSource [1:0] $end
$var reg 1 6 PCWrite $end
$var reg 1 5 RegDst $end
$var reg 1 4 RegWrite $end
$var reg 4 M next [3:0] $end
$scope module reg_state $end
$var wire 1 % clk $end
$var wire 4 N din [3:0] $end
$var wire 4 O dout [3:0] $end
$var wire 1 P en $end
$var wire 1 & rst $end
$upscope $end
$upscope $end
$scope module datapath_1 $end
$var wire 4 Q ALUControl [3:0] $end
$var wire 32 R ALUOut [31:0] $end
$var wire 1 A ALUSrcA $end
$var wire 2 S ALUSrcB [1:0] $end
$var wire 1 > Branch $end
$var wire 1 = BranchNe $end
$var wire 32 T Data [31:0] $end
$var wire 1 < IRWrite $end
$var wire 1 ; IorD $end
$var wire 1 : MemRead $end
$var wire 1 9 MemToReg $end
$var wire 1 " MemWrite $end
$var wire 2 U PCSource [1:0] $end
$var wire 1 5 RegDst $end
$var wire 1 4 RegWrite $end
$var wire 32 V a [31:0] $end
$var wire 32 W b [31:0] $end
$var wire 1 % clk $end
$var wire 32 X instruction [31:0] $end
$var wire 32 Y memoryOutData [31:0] $end
$var wire 32 Z memoryWriteData [31:0] $end
$var wire 32 [ pc [31:0] $end
$var wire 1 & rst $end
$var wire 32 \ wd3 [31:0] $end
$var wire 32 ] src_b [31:0] $end
$var wire 32 ^ src_a [31:0] $end
$var wire 32 _ sign_imm [31:0] $end
$var wire 32 ` rd2 [31:0] $end
$var wire 32 a rd1 [31:0] $end
$var wire 32 b pc_next [31:0] $end
$var wire 32 c memoryAddress [31:0] $end
$var wire 32 d imm_shift [31:0] $end
$var wire 5 e a3 [4:0] $end
$var wire 5 f a2 [4:0] $end
$var wire 5 g a1 [4:0] $end
$var wire 32 h PCJump [31:0] $end
$var wire 1 8 PCEn $end
$var wire 1 ? ALUZero $end
$var wire 32 i ALUResult [31:0] $end
$var wire 1 B ALUOverflow $end
$scope module alu_1 $end
$var wire 4 j ALUControl [3:0] $end
$var wire 1 ? ALUZero $end
$var wire 32 k ALUInB [31:0] $end
$var wire 32 l ALUInA [31:0] $end
$var reg 1 B ALUOverflow $end
$var reg 32 m ALUResult [31:0] $end
$upscope $end
$scope module mux_a3 $end
$var wire 5 n din0 [4:0] $end
$var wire 5 o din1 [4:0] $end
$var wire 1 5 sel $end
$var wire 5 p dout [4:0] $end
$upscope $end
$scope module mux_iord $end
$var wire 32 q din0 [31:0] $end
$var wire 32 r din1 [31:0] $end
$var wire 1 ; sel $end
$var wire 32 s dout [31:0] $end
$upscope $end
$scope module mux_pcsrc $end
$var wire 32 t din0 [31:0] $end
$var wire 32 u din1 [31:0] $end
$var wire 32 v din2 [31:0] $end
$var wire 32 w din3 [31:0] $end
$var wire 2 x sel [1:0] $end
$var reg 32 y dout [31:0] $end
$upscope $end
$scope module mux_srca $end
$var wire 32 z din0 [31:0] $end
$var wire 32 { din1 [31:0] $end
$var wire 1 A sel $end
$var wire 32 | dout [31:0] $end
$upscope $end
$scope module mux_srcb $end
$var wire 32 } din0 [31:0] $end
$var wire 32 ~ din1 [31:0] $end
$var wire 2 !" sel [1:0] $end
$var wire 32 "" din3 [31:0] $end
$var wire 32 #" din2 [31:0] $end
$var reg 32 $" dout [31:0] $end
$upscope $end
$scope module mux_wd3 $end
$var wire 32 %" din0 [31:0] $end
$var wire 32 &" din1 [31:0] $end
$var wire 1 9 sel $end
$var wire 32 '" dout [31:0] $end
$upscope $end
$scope module reg_ALUOut $end
$var wire 1 % clk $end
$var wire 32 (" din [31:0] $end
$var wire 32 )" dout [31:0] $end
$var wire 1 *" en $end
$var wire 1 & rst $end
$upscope $end
$scope module reg_Data $end
$var wire 1 % clk $end
$var wire 32 +" din [31:0] $end
$var wire 32 ," dout [31:0] $end
$var wire 1 -" en $end
$var wire 1 & rst $end
$upscope $end
$scope module reg_Instr $end
$var wire 1 % clk $end
$var wire 32 ." din [31:0] $end
$var wire 32 /" dout [31:0] $end
$var wire 1 < en $end
$var wire 1 & rst $end
$upscope $end
$scope module reg_a $end
$var wire 1 % clk $end
$var wire 32 0" dout [31:0] $end
$var wire 1 1" en $end
$var wire 1 & rst $end
$var wire 32 2" din [31:0] $end
$upscope $end
$scope module reg_b $end
$var wire 1 % clk $end
$var wire 32 3" dout [31:0] $end
$var wire 1 4" en $end
$var wire 1 & rst $end
$var wire 32 5" din [31:0] $end
$upscope $end
$scope module reg_pc $end
$var wire 1 % clk $end
$var wire 32 6" din [31:0] $end
$var wire 32 7" dout [31:0] $end
$var wire 1 & rst $end
$var wire 1 8 en $end
$upscope $end
$scope module regfile_1 $end
$var wire 5 8" addrReadReg1 [4:0] $end
$var wire 5 9" addrReadReg2 [4:0] $end
$var wire 5 :" addrWriteReg [4:0] $end
$var wire 1 % clk $end
$var wire 32 ;" dataWrite [31:0] $end
$var wire 1 4 regWrite $end
$var wire 1 & rst $end
$var reg 32 <" data1 [31:0] $end
$var reg 32 =" data2 [31:0] $end
$var reg 32 >" regEn [31:0] $end
$scope begin genblk1[1] $end
$scope module reginst $end
$var wire 1 % clk $end
$var wire 32 ?" din [31:0] $end
$var wire 32 @" dout [31:0] $end
$var wire 1 A" en $end
$var wire 1 & rst $end
$upscope $end
$upscope $end
$scope begin genblk1[2] $end
$scope module reginst $end
$var wire 1 % clk $end
$var wire 32 B" din [31:0] $end
$var wire 32 C" dout [31:0] $end
$var wire 1 D" en $end
$var wire 1 & rst $end
$upscope $end
$upscope $end
$scope begin genblk1[3] $end
$scope module reginst $end
$var wire 1 % clk $end
$var wire 32 E" din [31:0] $end
$var wire 32 F" dout [31:0] $end
$var wire 1 G" en $end
$var wire 1 & rst $end
$upscope $end
$upscope $end
$scope begin genblk1[4] $end
$scope module reginst $end
$var wire 1 % clk $end
$var wire 32 H" din [31:0] $end
$var wire 32 I" dout [31:0] $end
$var wire 1 J" en $end
$var wire 1 & rst $end
$upscope $end
$upscope $end
$scope begin genblk1[5] $end
$scope module reginst $end
$var wire 1 % clk $end
$var wire 32 K" din [31:0] $end
$var wire 32 L" dout [31:0] $end
$var wire 1 M" en $end
$var wire 1 & rst $end
$upscope $end
$upscope $end
$scope begin genblk1[6] $end
$scope module reginst $end
$var wire 1 % clk $end
$var wire 32 N" din [31:0] $end
$var wire 32 O" dout [31:0] $end
$var wire 1 P" en $end
$var wire 1 & rst $end
$upscope $end
$upscope $end
$scope begin genblk1[7] $end
$scope module reginst $end
$var wire 1 % clk $end
$var wire 32 Q" din [31:0] $end
$var wire 32 R" dout [31:0] $end
$var wire 1 S" en $end
$var wire 1 & rst $end
$upscope $end
$upscope $end
$scope begin genblk1[8] $end
$scope module reginst $end
$var wire 1 % clk $end
$var wire 32 T" din [31:0] $end
$var wire 32 U" dout [31:0] $end
$var wire 1 V" en $end
$var wire 1 & rst $end
$upscope $end
$upscope $end
$scope begin genblk1[9] $end
$scope module reginst $end
$var wire 1 % clk $end
$var wire 32 W" din [31:0] $end
$var wire 32 X" dout [31:0] $end
$var wire 1 Y" en $end
$var wire 1 & rst $end
$upscope $end
$upscope $end
$scope begin genblk1[10] $end
$scope module reginst $end
$var wire 1 % clk $end
$var wire 32 Z" din [31:0] $end
$var wire 32 [" dout [31:0] $end
$var wire 1 \" en $end
$var wire 1 & rst $end
$upscope $end
$upscope $end
$scope begin genblk1[11] $end
$scope module reginst $end
$var wire 1 % clk $end
$var wire 32 ]" din [31:0] $end
$var wire 32 ^" dout [31:0] $end
$var wire 1 _" en $end
$var wire 1 & rst $end
$upscope $end
$upscope $end
$scope begin genblk1[12] $end
$scope module reginst $end
$var wire 1 % clk $end
$var wire 32 `" din [31:0] $end
$var wire 32 a" dout [31:0] $end
$var wire 1 b" en $end
$var wire 1 & rst $end
$upscope $end
$upscope $end
$scope begin genblk1[13] $end
$scope module reginst $end
$var wire 1 % clk $end
$var wire 32 c" din [31:0] $end
$var wire 32 d" dout [31:0] $end
$var wire 1 e" en $end
$var wire 1 & rst $end
$upscope $end
$upscope $end
$scope begin genblk1[14] $end
$scope module reginst $end
$var wire 1 % clk $end
$var wire 32 f" din [31:0] $end
$var wire 32 g" dout [31:0] $end
$var wire 1 h" en $end
$var wire 1 & rst $end
$upscope $end
$upscope $end
$scope begin genblk1[15] $end
$scope module reginst $end
$var wire 1 % clk $end
$var wire 32 i" din [31:0] $end
$var wire 32 j" dout [31:0] $end
$var wire 1 k" en $end
$var wire 1 & rst $end
$upscope $end
$upscope $end
$scope begin genblk1[16] $end
$scope module reginst $end
$var wire 1 % clk $end
$var wire 32 l" din [31:0] $end
$var wire 32 m" dout [31:0] $end
$var wire 1 n" en $end
$var wire 1 & rst $end
$upscope $end
$upscope $end
$scope begin genblk1[17] $end
$scope module reginst $end
$var wire 1 % clk $end
$var wire 32 o" din [31:0] $end
$var wire 32 p" dout [31:0] $end
$var wire 1 q" en $end
$var wire 1 & rst $end
$upscope $end
$upscope $end
$scope begin genblk1[18] $end
$scope module reginst $end
$var wire 1 % clk $end
$var wire 32 r" din [31:0] $end
$var wire 32 s" dout [31:0] $end
$var wire 1 t" en $end
$var wire 1 & rst $end
$upscope $end
$upscope $end
$scope begin genblk1[19] $end
$scope module reginst $end
$var wire 1 % clk $end
$var wire 32 u" din [31:0] $end
$var wire 32 v" dout [31:0] $end
$var wire 1 w" en $end
$var wire 1 & rst $end
$upscope $end
$upscope $end
$scope begin genblk1[20] $end
$scope module reginst $end
$var wire 1 % clk $end
$var wire 32 x" din [31:0] $end
$var wire 32 y" dout [31:0] $end
$var wire 1 z" en $end
$var wire 1 & rst $end
$upscope $end
$upscope $end
$scope begin genblk1[21] $end
$scope module reginst $end
$var wire 1 % clk $end
$var wire 32 {" din [31:0] $end
$var wire 32 |" dout [31:0] $end
$var wire 1 }" en $end
$var wire 1 & rst $end
$upscope $end
$upscope $end
$scope begin genblk1[22] $end
$scope module reginst $end
$var wire 1 % clk $end
$var wire 32 ~" din [31:0] $end
$var wire 32 !# dout [31:0] $end
$var wire 1 "# en $end
$var wire 1 & rst $end
$upscope $end
$upscope $end
$scope begin genblk1[23] $end
$scope module reginst $end
$var wire 1 % clk $end
$var wire 32 ## din [31:0] $end
$var wire 32 $# dout [31:0] $end
$var wire 1 %# en $end
$var wire 1 & rst $end
$upscope $end
$upscope $end
$scope begin genblk1[24] $end
$scope module reginst $end
$var wire 1 % clk $end
$var wire 32 &# din [31:0] $end
$var wire 32 '# dout [31:0] $end
$var wire 1 (# en $end
$var wire 1 & rst $end
$upscope $end
$upscope $end
$scope begin genblk1[25] $end
$scope module reginst $end
$var wire 1 % clk $end
$var wire 32 )# din [31:0] $end
$var wire 32 *# dout [31:0] $end
$var wire 1 +# en $end
$var wire 1 & rst $end
$upscope $end
$upscope $end
$scope begin genblk1[26] $end
$scope module reginst $end
$var wire 1 % clk $end
$var wire 32 ,# din [31:0] $end
$var wire 32 -# dout [31:0] $end
$var wire 1 .# en $end
$var wire 1 & rst $end
$upscope $end
$upscope $end
$scope begin genblk1[27] $end
$scope module reginst $end
$var wire 1 % clk $end
$var wire 32 /# din [31:0] $end
$var wire 32 0# dout [31:0] $end
$var wire 1 1# en $end
$var wire 1 & rst $end
$upscope $end
$upscope $end
$scope begin genblk1[28] $end
$scope module reginst $end
$var wire 1 % clk $end
$var wire 32 2# din [31:0] $end
$var wire 32 3# dout [31:0] $end
$var wire 1 4# en $end
$var wire 1 & rst $end
$upscope $end
$upscope $end
$scope begin genblk1[29] $end
$scope module reginst $end
$var wire 1 % clk $end
$var wire 32 5# din [31:0] $end
$var wire 32 6# dout [31:0] $end
$var wire 1 7# en $end
$var wire 1 & rst $end
$upscope $end
$upscope $end
$scope begin genblk1[30] $end
$scope module reginst $end
$var wire 1 % clk $end
$var wire 32 8# din [31:0] $end
$var wire 32 9# dout [31:0] $end
$var wire 1 :# en $end
$var wire 1 & rst $end
$upscope $end
$upscope $end
$scope begin genblk1[31] $end
$scope module reginst $end
$var wire 1 % clk $end
$var wire 32 ;# din [31:0] $end
$var wire 32 <# dout [31:0] $end
$var wire 1 =# en $end
$var wire 1 & rst $end
$upscope $end
$upscope $end
$scope module reginst $end
$var wire 1 % clk $end
$var wire 32 ># din [31:0] $end
$var wire 32 ?# dout [31:0] $end
$var wire 1 @# en $end
$var wire 1 & rst $end
$upscope $end
$upscope $end
$scope module sign_1 $end
$var wire 16 A# din [15:0] $end
$var wire 32 B# dout [31:0] $end
$upscope $end
$scope module sl32_imm $end
$var wire 32 C# din [31:0] $end
$var wire 32 D# dout [31:0] $end
$upscope $end
$scope module sl32_jump $end
$var wire 28 E# din [27:0] $end
$var wire 28 F# dout [27:0] $end
$upscope $end
$upscope $end
$scope module nextPCLogic_1 $end
$var wire 1 > branchEq $end
$var wire 1 = branchNeq $end
$var wire 1 8 pcen $end
$var wire 1 6 pcwrite $end
$var wire 1 ? zero $end
$upscope $end
$upscope $end
$upscope $end
$enddefinitions $end
#0
$dumpvars
b0 F#
b0 E#
b0 D#
b0 C#
b0 B#
b0 A#
0@#
b0 ?#
b0 >#
0=#
b0 <#
b0 ;#
0:#
b0 9#
b0 8#
07#
b0 6#
b0 5#
04#
b0 3#
b0 2#
01#
b0 0#
b0 /#
0.#
b0 -#
b0 ,#
0+#
b0 *#
b0 )#
0(#
b0 '#
b0 &#
0%#
b0 $#
b0 ##
0"#
b0 !#
b0 ~"
0}"
b0 |"
b0 {"
0z"
b0 y"
b0 x"
0w"
b0 v"
b0 u"
0t"
b0 s"
b0 r"
0q"
b0 p"
b0 o"
0n"
b0 m"
b0 l"
0k"
b0 j"
b0 i"
0h"
b0 g"
b0 f"
0e"
b0 d"
b0 c"
0b"
b0 a"
b0 `"
0_"
b0 ^"
b0 ]"
0\"
b0 ["
b0 Z"
0Y"
b0 X"
b0 W"
0V"
b0 U"
b0 T"
0S"
b0 R"
b0 Q"
0P"
b0 O"
b0 N"
0M"
b0 L"
b0 K"
0J"
b0 I"
b0 H"
0G"
b0 F"
b0 E"
0D"
b0 C"
b0 B"
0A"
b0 @"
b0 ?"
b0 >"
b0 ="
b0 <"
b0 ;"
b0 :"
b0 9"
b0 8"
b0 7"
b100 6"
b0 5"
14"
b0 3"
b0 2"
11"
b0 0"
b0 /"
b10001100000010000000000001010000 ."
1-"
b0 ,"
b10001100000010000000000001010000 +"
1*"
b0 )"
b100 ("
b0 '"
b0 &"
b0 %"
b100 $"
b0 #"
b0 ""
b1 !"
b100 ~
b0 }
b0 |
b0 {
b0 z
b100 y
b0 x
b0 w
b0 v
b0 u
b100 t
b0 s
b0 r
b0 q
b0 p
b0 o
b0 n
b100 m
b0 l
b100 k
b10 j
b100 i
b0 h
b0 g
b0 f
b0 e
b0 d
b0 c
b100 b
b0 a
b0 `
b0 _
b0 ^
b100 ]
b0 \
b0 [
b0 Z
b10001100000010000000000001010000 Y
b0 X
b0 W
b0 V
b0 U
b0 T
b1 S
b0 R
b10 Q
1P
b0 O
b1 N
b1 M
b0 L
b1 K
b0 J
b0 I
b0 H
b10 G
b0 F
b0 E
b10 D
b0 C
0B
0A
b1 @
0?
0>
0=
1<
0;
x:
09
18
b0 7
16
05
04
b0 3
b0 2
b0 1
b0 0
b10001100000010000000000001010000 /
b0 .
b0 -
bx ,
b0 +
b0 *
1)
z(
b10001100000010000000000001010000 '
0&
0%
b0 $
b10001100000010000000000001010000 #
0"
b0 !
$end
#1
1%
#2
0%
#3
1%
#4
0%
#5
b101000100 b
b101000100 y
b101000100 6"
b101000000 d
b101000000 ""
b101000000 D#
b10 D
b10 G
b10 Q
b10 j
b1000 e
b1000 p
b1000 :"
b1010000 _
b1010000 #"
b1010000 B#
b1010000 C#
b1000000000000101000000 h
b1000000000000101000000 v
b1000000000000101000000 F#
b10001100000010010000000001010100 #
b10001100000010010000000001010100 '
b10001100000010010000000001010100 /
b10001100000010010000000001010100 Y
b10001100000010010000000001010100 +"
b10001100000010010000000001010100 ."
0?
b101000100 i
b101000100 m
b101000100 t
b101000100 ("
08
b101000000 ]
b101000000 k
b101000000 $"
b100 \
b100 '"
b100 ;"
b100 ?"
b100 B"
b100 E"
b100 H"
b100 K"
b100 N"
b100 Q"
b100 T"
b100 W"
b100 Z"
b100 ]"
b100 `"
b100 c"
b100 f"
b100 i"
b100 l"
b100 o"
b100 r"
b100 u"
b100 x"
b100 {"
b100 ~"
b100 ##
b100 &#
b100 )#
b100 ,#
b100 /#
b100 2#
b100 5#
b100 8#
b100 ;#
b100011 0
b100011 H
b10000 3
b10000 E
b1000 f
b1000 9"
b1000 n
b1010000 A#
b10000000000001010000 E#
b100 $
b100 +
b100 2
b100 c
b100 s
b100 ^
b100 l
b100 |
b10 M
b10 N
06
0<
b11 @
b11 K
b11 S
b11 !"
b100 -
b100 R
b100 r
b100 u
b100 %"
b100 )"
b10001100000010000000000001010000 T
b10001100000010000000000001010000 &"
b10001100000010000000000001010000 ,"
b10001100000010000000000001010000 .
b10001100000010000000000001010000 X
b10001100000010000000000001010000 /"
b100 [
b100 q
b100 z
b100 7"
b1 I
b1 O
1%
1&
#6
0%
#7
b1010000 b
b1010000 y
b1010000 6"
0?
b1010000 i
b1010000 m
b1010000 t
b1010000 ("
b0 ^
b0 l
b0 |
b1010000 ]
b1010000 k
b1010000 $"
b11 M
b11 N
1A
b10 @
b10 K
b10 S
b10 !"
b101000100 \
b101000100 '"
b101000100 ;"
b101000100 ?"
b101000100 B"
b101000100 E"
b101000100 H"
b101000100 K"
b101000100 N"
b101000100 Q"
b101000100 T"
b101000100 W"
b101000100 Z"
b101000100 ]"
b101000100 `"
b101000100 c"
b101000100 f"
b101000100 i"
b101000100 l"
b101000100 o"
b101000100 r"
b101000100 u"
b101000100 x"
b101000100 {"
b101000100 ~"
b101000100 ##
b101000100 &#
b101000100 )#
b101000100 ,#
b101000100 /#
b101000100 2#
b101000100 5#
b101000100 8#
b101000100 ;#
b10 I
b10 O
b10001100000010010000000001010100 T
b10001100000010010000000001010100 &"
b10001100000010010000000001010100 ,"
b101000100 -
b101000100 R
b101000100 r
b101000100 u
b101000100 %"
b101000100 )"
1%
#8
0%
#9
b100 b
b100 y
b100 6"
b1000 #
b1000 '
b1000 /
b1000 Y
b1000 +"
b1000 ."
0?
b100 i
b100 m
b100 t
b100 ("
b1010000 $
b1010000 +
b1010000 2
b1010000 c
b1010000 s
b0 ]
b0 k
b0 $"
b100 ^
b100 l
b100 |
b1010000 \
b1010000 '"
b1010000 ;"
b1010000 ?"
b1010000 B"
b1010000 E"
b1010000 H"
b1010000 K"
b1010000 N"
b1010000 Q"
b1010000 T"
b1010000 W"
b1010000 Z"
b1010000 ]"
b1010000 `"
b1010000 c"
b1010000 f"
b1010000 i"
b1010000 l"
b1010000 o"
b1010000 r"
b1010000 u"
b1010000 x"
b1010000 {"
b1010000 ~"
b1010000 ##
b1010000 &#
b1010000 )#
b1010000 ,#
b1010000 /#
b1010000 2#
b1010000 5#
b1010000 8#
b1010000 ;#
b100 M
b100 N
1;
b0 @
b0 K
b0 S
b0 !"
0A
b1010000 -
b1010000 R
b1010000 r
b1010000 u
b1010000 %"
b1010000 )"
b11 I
b11 O
1%
#10
0%
#11
1V"
b100000000 >"
b10001100000010010000000001010100 #
b10001100000010010000000001010100 '
b10001100000010010000000001010100 /
b10001100000010010000000001010100 Y
b10001100000010010000000001010100 +"
b10001100000010010000000001010100 ."
b0 M
b0 N
14
19
0;
b100 $
b100 +
b100 2
b100 c
b100 s
b1000 \
b1000 '"
b1000 ;"
b1000 ?"
b1000 B"
b1000 E"
b1000 H"
b1000 K"
b1000 N"
b1000 Q"
b1000 T"
b1000 W"
b1000 Z"
b1000 ]"
b1000 `"
b1000 c"
b1000 f"
b1000 i"
b1000 l"
b1000 o"
b1000 r"
b1000 u"
b1000 x"
b1000 {"
b1000 ~"
b1000 ##
b1000 &#
b1000 )#
b1000 ,#
b1000 /#
b1000 2#
b1000 5#
b1000 8#
b1000 ;#
b100 I
b100 O
b1000 T
b1000 &"
b1000 ,"
b100 -
b100 R
b100 r
b100 u
b100 %"
b100 )"
1%
#12
0%
#13
b1000 b
b1000 y
b1000 6"
0?
b1000 i
b1000 m
b1000 t
b1000 ("
0V"
18
b100 ]
b100 k
b100 $"
b1000 `
b1000 5"
b1000 ="
b0 >"
b100 \
b100 '"
b100 ;"
b100 ?"
b100 B"
b100 E"
b100 H"
b100 K"
b100 N"
b100 Q"
b100 T"
b100 W"
b100 Z"
b100 ]"
b100 `"
b100 c"
b100 f"
b100 i"
b100 l"
b100 o"
b100 r"
b100 u"
b100 x"
b100 {"
b100 ~"
b100 ##
b100 &#
b100 )#
b100 ,#
b100 /#
b100 2#
b100 5#
b100 8#
b100 ;#
b1 M
b1 N
16
1<
b1 @
b1 K
b1 S
b1 !"
04
09
b1000 U"
b10001100000010010000000001010100 T
b10001100000010010000000001010100 &"
b10001100000010010000000001010100 ,"
b0 I
b0 O
1%
#14
0%
#15
b101010000 d
b101010000 ""
b101010000 D#
b101011000 b
b101011000 y
b101011000 6"
08
b1000010011000000000100010 #
b1000010011000000000100010 '
b1000010011000000000100010 /
b1000010011000000000100010 Y
b1000010011000000000100010 +"
b1000010011000000000100010 ."
b10 D
b10 G
b10 Q
b10 j
b0 `
b0 5"
b0 ="
b1001 e
b1001 p
b1001 :"
b1010100 _
b1010100 #"
b1010100 B#
b1010100 C#
b1001000000000101010000 h
b1001000000000101010000 v
b1001000000000101010000 F#
0?
b101011000 i
b101011000 m
b101011000 t
b101011000 ("
b10 M
b10 N
06
0<
b11 @
b11 K
b11 S
b11 !"
b1000 $
b1000 +
b1000 2
b1000 c
b1000 s
b1000 ^
b1000 l
b1000 |
b10100 3
b10100 E
b1001 f
b1001 9"
b1001 n
b1010100 A#
b10010000000001010100 E#
b101010000 ]
b101010000 k
b101010000 $"
b1000 \
b1000 '"
b1000 ;"
b1000 ?"
b1000 B"
b1000 E"
b1000 H"
b1000 K"
b1000 N"
b1000 Q"
b1000 T"
b1000 W"
b1000 Z"
b1000 ]"
b1000 `"
b1000 c"
b1000 f"
b1000 i"
b1000 l"
b1000 o"
b1000 r"
b1000 u"
b1000 x"
b1000 {"
b1000 ~"
b1000 ##
b1000 &#
b1000 )#
b1000 ,#
b1000 /#
b1000 2#
b1000 5#
b1000 8#
b1000 ;#
b1 I
b1 O
b1000 [
b1000 q
b1000 z
b1000 7"
b10001100000010010000000001010100 .
b10001100000010010000000001010100 X
b10001100000010010000000001010100 /"
b1000 !
b1000 *
b1000 1
b1000 Z
b1000 W
b1000 }
b1000 3"
b1000 -
b1000 R
b1000 r
b1000 u
b1000 %"
b1000 )"
1%
#16
0%
#17
b1010100 b
b1010100 y
b1010100 6"
0?
b1010100 i
b1010100 m
b1010100 t
b1010100 ("
b0 ^
b0 l
b0 |
b101011000 \
b101011000 '"
b101011000 ;"
b101011000 ?"
b101011000 B"
b101011000 E"
b101011000 H"
b101011000 K"
b101011000 N"
b101011000 Q"
b101011000 T"
b101011000 W"
b101011000 Z"
b101011000 ]"
b101011000 `"
b101011000 c"
b101011000 f"
b101011000 i"
b101011000 l"
b101011000 o"
b101011000 r"
b101011000 u"
b101011000 x"
b101011000 {"
b101011000 ~"
b101011000 ##
b101011000 &#
b101011000 )#
b101011000 ,#
b101011000 /#
b101011000 2#
b101011000 5#
b101011000 8#
b101011000 ;#
b1010100 ]
b1010100 k
b1010100 $"
b11 M
b11 N
1A
b10 @
b10 K
b10 S
b10 !"
b101011000 -
b101011000 R
b101011000 r
b101011000 u
b101011000 %"
b101011000 )"
b0 !
b0 *
b0 1
b0 Z
b0 W
b0 }
b0 3"
b1000010011000000000100010 T
b1000010011000000000100010 &"
b1000010011000000000100010 ,"
b10 I
b10 O
1%
#18
0%
#19
b1000 b
b1000 y
b1000 6"
b100000 #
b100000 '
b100000 /
b100000 Y
b100000 +"
b100000 ."
0?
b1000 i
b1000 m
b1000 t
b1000 ("
b1010100 $
b1010100 +
b1010100 2
b1010100 c
b1010100 s
b0 ]
b0 k
b0 $"
b1000 ^
b1000 l
b1000 |
b100 M
b100 N
1;
b0 @
b0 K
b0 S
b0 !"
0A
b1010100 \
b1010100 '"
b1010100 ;"
b1010100 ?"
b1010100 B"
b1010100 E"
b1010100 H"
b1010100 K"
b1010100 N"
b1010100 Q"
b1010100 T"
b1010100 W"
b1010100 Z"
b1010100 ]"
b1010100 `"
b1010100 c"
b1010100 f"
b1010100 i"
b1010100 l"
b1010100 o"
b1010100 r"
b1010100 u"
b1010100 x"
b1010100 {"
b1010100 ~"
b1010100 ##
b1010100 &#
b1010100 )#
b1010100 ,#
b1010100 /#
b1010100 2#
b1010100 5#
b1010100 8#
b1010100 ;#
b11 I
b11 O
b1010100 -
b1010100 R
b1010100 r
b1010100 u
b1010100 %"
b1010100 )"
1%
#20
0%
#21
1Y"
b1000010011000000000100010 #
b1000010011000000000100010 '
b1000010011000000000100010 /
b1000010011000000000100010 Y
b1000010011000000000100010 +"
b1000010011000000000100010 ."
b1000000000 >"
b1000 $
b1000 +
b1000 2
b1000 c
b1000 s
b100000 \
b100000 '"
b100000 ;"
b100000 ?"
b100000 B"
b100000 E"
b100000 H"
b100000 K"
b100000 N"
b100000 Q"
b100000 T"
b100000 W"
b100000 Z"
b100000 ]"
b100000 `"
b100000 c"
b100000 f"
b100000 i"
b100000 l"
b100000 o"
b100000 r"
b100000 u"
b100000 x"
b100000 {"
b100000 ~"
b100000 ##
b100000 &#
b100000 )#
b100000 ,#
b100000 /#
b100000 2#
b100000 5#
b100000 8#
b100000 ;#
b0 M
b0 N
14
19
0;
b1000 -
b1000 R
b1000 r
b1000 u
b1000 %"
b1000 )"
b100000 T
b100000 &"
b100000 ,"
b100 I
b100 O
1%
#22
0%
#23
b1100 b
b1100 y
b1100 6"
0?
b1100 i
b1100 m
b1100 t
b1100 ("
0Y"
18
b100 ]
b100 k
b100 $"
b100000 `
b100000 5"
b100000 ="
b1 M
b1 N
16
1<
b1 @
b1 K
b1 S
b1 !"
04
09
b1000 \
b1000 '"
b1000 ;"
b1000 ?"
b1000 B"
b1000 E"
b1000 H"
b1000 K"
b1000 N"
b1000 Q"
b1000 T"
b1000 W"
b1000 Z"
b1000 ]"
b1000 `"
b1000 c"
b1000 f"
b1000 i"
b1000 l"
b1000 o"
b1000 r"
b1000 u"
b1000 x"
b1000 {"
b1000 ~"
b1000 ##
b1000 &#
b1000 )#
b1000 ,#
b1000 /#
b1000 2#
b1000 5#
b1000 8#
b1000 ;#
b0 >"
b0 I
b0 O
b1000010011000000000100010 T
b1000010011000000000100010 &"
b1000010011000000000100010 ,"
b100000 X"
1%
#24
0%
